…
# Exercise 3: Filter observations in your data according to your own criteria.

I am filtering the data to only those with diagnosis = “M”, or in other
words, only observations where the patient was diagnosed with a
malignant tumor.

``` r
malignant <- cancer_sample %>% 
  filter(diagnosis=="M") # Pick only rows with "M" as a diagnosis

malignant
```

    ## # A tibble: 212 × 32
    ##          ID diagnosis radius_mean texture_mean perimeter_mean area_mean
    ##       <dbl> <chr>           <dbl>        <dbl>          <dbl>     <dbl>
    ##  1   842302 M                18.0         10.4          123.      1001 
    ##  2   842517 M                20.6         17.8          133.      1326 
    ##  3 84300903 M                19.7         21.2          130       1203 
    ##  4 84348301 M                11.4         20.4           77.6      386.
    ##  5 84358402 M                20.3         14.3          135.      1297 
    ##  6   843786 M                12.4         15.7           82.6      477.
    ##  7   844359 M                18.2         20.0          120.      1040 
    ##  8 84458202 M                13.7         20.8           90.2      578.
    ##  9   844981 M                13           21.8           87.5      520.
    ## 10 84501001 M                12.5         24.0           84.0      476.
    ## # ℹ 202 more rows
    ## # ℹ 26 more variables: smoothness_mean <dbl>, compactness_mean <dbl>,
    ## #   concavity_mean <dbl>, concave_points_mean <dbl>, symmetry_mean <dbl>,
    ## #   fractal_dimension_mean <dbl>, radius_se <dbl>, texture_se <dbl>,
    ## #   perimeter_se <dbl>, area_se <dbl>, smoothness_se <dbl>,
    ## #   compactness_se <dbl>, concavity_se <dbl>, concave_points_se <dbl>,
    ## #   symmetry_se <dbl>, fractal_dimension_se <dbl>, radius_worst <dbl>, …
…
# Exercise 4: Make a new tibble with a subset of your data

I am going to remove the “\*\_se” variables because I am not interested
in them.

``` r
cancer_subset <- cancer_sample %>% 
  select(!contains("se")) # select all variables that do not contain se in the name

cancer_subset
```

    ## # A tibble: 569 × 22
    ##          ID diagnosis radius_mean texture_mean perimeter_mean area_mean
    ##       <dbl> <chr>           <dbl>        <dbl>          <dbl>     <dbl>
    ##  1   842302 M                18.0         10.4          123.      1001 
    ##  2   842517 M                20.6         17.8          133.      1326 
    ##  3 84300903 M                19.7         21.2          130       1203 
    ##  4 84348301 M                11.4         20.4           77.6      386.
    ##  5 84358402 M                20.3         14.3          135.      1297 
    ##  6   843786 M                12.4         15.7           82.6      477.
    ##  7   844359 M                18.2         20.0          120.      1040 
    ##  8 84458202 M                13.7         20.8           90.2      578.
    ##  9   844981 M                13           21.8           87.5      520.
    ## 10 84501001 M                12.5         24.0           84.0      476.
    ## # ℹ 559 more rows
    ## # ℹ 16 more variables: smoothness_mean <dbl>, compactness_mean <dbl>,
    ## #   concavity_mean <dbl>, concave_points_mean <dbl>, symmetry_mean <dbl>,
    ## #   fractal_dimension_mean <dbl>, radius_worst <dbl>, texture_worst <dbl>,
    ## #   perimeter_worst <dbl>, area_worst <dbl>, smoothness_worst <dbl>,
    ## #   compactness_worst <dbl>, concavity_worst <dbl>, concave_points_worst <dbl>,
    ## #   symmetry_worst <dbl>, fractal_dimension_worst <dbl>
…
